Présentation d’utilitR
…
nombre <- doremifasolData::bpe_ens_2018 %>%
  as_tibble() %>%
  filter(TYPEQU == "B316") %>%
  group_by(DEP) %>%
  summarise(nombre_station_serv = sum(NB_EQUIP, na.rm = TRUE))
nombre
```

--

```
## # A tibble: 96 x 2
##   DEP   nombre_station_serv
##   <chr>               <dbl>
## 1 01                    110
## 2 02                     91
## 3 03                     78
## 4 04                     48
## 5 05                     43
## 6 06                    148
## # … with 90 more rows
```
…
